{
  "development": {
    "username": "rattanakorn",
    "password": "1720110808",
    "database": "rattanakorn_auth",
    "host": "206.189.150.92",
    "post" : "3306",
    "dialect": "mysql"
  },
  "test": {
    "username": "root",
    "password": null,
    "database": "database_test",
    "host": "127.0.0.1",
    "dialect": "mysql"
  },
  "production": {
    "username": "rattanakorn",
    "password": "1720110808",
    "database": "rattanakorn_auth",
    "host": "206.189.150.92",
    "post" : "3306",
    "dialect": "mysql"
  }
}
